ReadData             INFO in initialize()
EventSelector        INFO reinitialization...
EventSelector        INFO EventSelection with query 
EventSelector        INFO Using standard collection ref 
AthenaEventLoopMgr   INFO Setup EventSelector service EventSelector
ReadData             INFO in finalize()
